…
    ## Warning: `data_frame()` is deprecated as of tibble 1.1.0.
    ## Please use `tibble()` instead.
    ## This warning is displayed once every 8 hours.
    ## Call `lifecycle::last_warnings()` to see where this warning was generated.

``` r
boot_straps ###相当于做1000次bootstrap，每次都取跟raw data samples size一致的sample数量
```

    ## # A tibble: 1,000 x 2
    ##    strap_number strap_sample      
    ##           <int> <list>            
    ##  1            1 <tibble [250 × 3]>
    ##  2            2 <tibble [250 × 3]>
    ##  3            3 <tibble [250 × 3]>
    ##  4            4 <tibble [250 × 3]>
    ##  5            5 <tibble [250 × 3]>
    ##  6            6 <tibble [250 × 3]>
    ##  7            7 <tibble [250 × 3]>
    ##  8            8 <tibble [250 × 3]>
    ##  9            9 <tibble [250 × 3]>
    ## 10           10 <tibble [250 × 3]>
    ## # … with 990 more rows

``` r
boot_straps %>% pull(strap_sample) %>% .[[1]]
```

    ## # A tibble: 250 x 3
    ##         x   error      y
    ##     <dbl>   <dbl>  <dbl>
    ##  1  1.03  -0.421   4.67 
    ##  2  1.00  -0.251   4.75 
    ##  3  1.24  -0.982   4.73 
    ##  4  0.465 -0.144   3.25 
    ##  5  2.64  -0.399   9.51 
    ##  6  1.38  -0.375   5.75 
    ##  7  1.38  -0.375   5.75 
    ##  8 -0.340 -0.0445  0.935
    ##  9  1.23   0.155   5.84 
    ## 10  3.69  -1.07   12.0  
    ## # … with 240 more rows

``` r
boot_straps %>% 
  filter(strap_number %in% 1:2) %>% 
  mutate(strap_sample = map(strap_sample, ~arrange(.x, x))) %>% 
  pull(strap_sample)
```

    ## [[1]]
    ## # A tibble: 250 x 3
    ##         x  error       y
    ##     <dbl>  <dbl>   <dbl>
    ##  1 -1.78  -1.40  -4.73  
    ##  2 -1.78  -1.40  -4.73  
    ##  3 -1.70   1.44  -1.67  
    ##  4 -1.70   1.44  -1.67  
    ##  5 -1.70   1.44  -1.67  
    ##  6 -1.66   1.99  -0.999 
    ##  7 -1.66   1.99  -0.999 
    ##  8 -0.955  1.04   0.177 
    ##  9 -0.955  1.04   0.177 
    ## 10 -0.868  0.537 -0.0678
    ## # … with 240 more rows
    ## 
    ## [[2]]
    ## # A tibble: 250 x 3
    ##         x    error         y
    ##     <dbl>    <dbl>     <dbl>
    ##  1 -1.78  -1.40    -4.73    
    ##  2 -1.66   1.99    -0.999   
    ##  3 -1.66   1.99    -0.999   
    ##  4 -0.868  0.537   -0.0678  
    ##  5 -0.700  1.18     1.08    
    ##  6 -0.700  1.18     1.08    
    ##  7 -0.669  0.00815  0.000595
    ##  8 -0.617  0.0335   0.181   
    ##  9 -0.617  0.0335   0.181   
    ## 10 -0.617  0.0335   0.181   
    ## # … with 240 more rows
…
``` r
boot_results = 
  boot_straps %>% 
  mutate(
    models = map(.x = strap_sample, ~lm(y ~ x, data = .x)),
    results = map(models, broom::tidy)
  ) %>% 
  select(strap_number, results) %>% 
  unnest(results)
  
boot_results
```

    ## # A tibble: 2,000 x 6
    ##    strap_number term        estimate std.error statistic   p.value
    ##           <int> <chr>          <dbl>     <dbl>     <dbl>     <dbl>
    ##  1            1 (Intercept)     2.13    0.0820      26.0 7.61e- 73
    ##  2            1 x               2.84    0.0585      48.6 8.22e-129
    ##  3            2 (Intercept)     2.03    0.0869      23.4 1.41e- 64
    ##  4            2 x               2.99    0.0628      47.6 8.24e-127
    ##  5            3 (Intercept)     2.02    0.0805      25.1 6.78e- 70
    ##  6            3 x               3.05    0.0597      51.1 1.32e-133
    ##  7            4 (Intercept)     2.10    0.0754      27.9 2.49e- 78
    ##  8            4 x               3.00    0.0532      56.4 1.70e-143
    ##  9            5 (Intercept)     2.00    0.0744      26.8 3.27e- 75
    ## 10            5 x               2.99    0.0512      58.4 5.82e-147
    ## # … with 1,990 more rows
…
