…
``` r
cv_df = 
  crossv_mc(nonlin_df, 100) # 100不是指raw data里有100个sample，而是100次resample
```

what is happening here

``` r
## 
cv_df %>% 
  pull(train) %>% .[[1]] %>% as_tibble()
```

    ## # A tibble: 79 x 3
    ##       id      x       y
    ##    <int>  <dbl>   <dbl>
    ##  1     1 0.213   0.545 
    ##  2     2 0.834  -2.27  
    ##  3     3 0.275   1.68  
    ##  4     4 0.718  -0.752 
    ##  5     5 0.457   1.22  
    ##  6     6 0.926  -2.43  
    ##  7     7 0.908  -2.62  
    ##  8     8 0.839  -2.04  
    ##  9     9 0.324   0.569 
    ## 10    10 0.0600  0.0377
    ## # … with 69 more rows

``` r
cv_df %>% 
  pull(test) %>% .[[1]] %>% as_tibble()
```

    ## # A tibble: 21 x 3
    ##       id        x      y
    ##    <int>    <dbl>  <dbl>
    ##  1    15 0.255     0.990
    ##  2    16 0.115     0.911
    ##  3    17 0.316     1.28 
    ##  4    20 0.0138    0.404
    ##  5    28 0.920    -2.68 
    ##  6    37 0.694    -0.526
    ##  7    40 0.369     0.955
    ##  8    43 0.709    -0.954
    ##  9    47 0.000184 -0.764
    ## 10    56 0.823    -1.77 
    ## # … with 11 more rows
…
